<?xml version="1.0" encoding="utf-8"?>
<!-- Generator: Adobe Illustrator 25.0.1, SVG Export Plug-In . SVG Version: 6.00 Build 0)  -->
<svg version="1.1" id="Capa_1" xmlns="http://www.w3.org/2000/svg" xmlns:xlink="http://www.w3.org/1999/xlink" x="0px" y="0px"
	 viewBox="0 0 744 539.3" style="enable-background:new 0 0 744 539.3;" xml:space="preserve">
<style type="text/css">
	.st0{fill:#F2F2F2;}
	.st1{fill:#F50057;}
	.st2{fill:#CCCCCC;}
	.st3{fill:#FFB8B8;}
	.st4{fill:#2F2E41;}
	.st5{fill:#3F3D56;}
	.st6{opacity:0.2;enable-background:new    ;}
	.st7{fill:#FFFFFF;}
</style>
<path class="st0" d="M474.1,404.3v130H148.4c-37.1,0-67.3-29.2-67.3-65s30.2-65,67.3-65H474.1z"/>
<path class="st1" d="M482.1,533.3c0,2.8-2.2,5-5,5H142.6c-37.8,0-68.5-30.7-68.5-68.5s30.7-68.5,68.5-68.5l0,0h334.5
	c2.8,0,5,2.2,5,5s-2.2,5-5,5H142.6c-32.3,0-58.5,26.2-58.5,58.5s26.2,58.5,58.5,58.5l0,0h334.5C479.9,528.3,482.1,530.5,482.1,533.3
	z"/>
<path class="st2" d="M474.1,434.3h-350c-0.6,0-1-0.4-1-1s0.4-1,1-1h350c0.6,0,1,0.4,1,1S474.7,434.3,474.1,434.3z"/>
<path class="st2" d="M474.1,458.3h-350c-0.6,0-1-0.4-1-1s0.4-1,1-1h350c0.6,0,1,0.4,1,1S474.7,458.3,474.1,458.3z"/>
<path class="st2" d="M474.1,482.3h-350c-0.6,0-1-0.4-1-1s0.4-1,1-1h350c0.6,0,1,0.4,1,1S474.7,482.3,474.1,482.3z"/>
<path class="st2" d="M474.1,506.3h-350c-0.6,0-1-0.4-1-1s0.4-1,1-1h350c0.6,0,1,0.4,1,1S474.7,506.3,474.1,506.3z"/>
<path class="st0" d="M725.8,428.8L644.3,530L390.7,325.6c-28.9-23.3-34.1-64.9-11.6-92.8s64.3-31.7,93.2-8.4L725.8,428.8z"/>
<path class="st2" d="M651.1,534.2c-1.7,2.1-4.9,2.5-7,0.8L383.6,325.1c-29.5-23.7-34.1-66.9-10.4-96.3
	c23.7-29.5,66.9-34.1,96.3-10.4L730,428.3c2.2,1.7,2.5,4.9,0.8,7s-4.9,2.5-7,0.8l0,0L463.3,226.2c-25.2-20.3-62-16.3-82.3,8.8
	c-20.3,25.2-16.3,62,8.8,82.3l260.5,209.9C652.5,528.9,652.9,532.1,651.1,534.2z"/>
<path class="st2" d="M707,452.1L434.5,232.5c-0.4-0.3-0.5-1-0.2-1.4s1-0.5,1.4-0.2l0,0l272.5,219.6c0.4,0.3,0.5,1,0.2,1.4
	C708.1,452.4,707.4,452.5,707,452.1L707,452.1L707,452.1z"/>
<path class="st2" d="M692,470.8L419.4,251.2c-0.4-0.3-0.5-1-0.1-1.4c0.3-0.4,1-0.5,1.4-0.2l272.5,219.6c0.4,0.3,0.5,1,0.2,1.4
	C693,471.1,692.4,471.2,692,470.8L692,470.8z"/>
<path class="st2" d="M676.9,489.5L404.4,269.9c-0.4-0.3-0.5-1-0.1-1.4c0.3-0.4,1-0.5,1.4-0.2l272.5,219.6c0.4,0.3,0.5,1,0.2,1.4
	C678,489.8,677.3,489.8,676.9,489.5L676.9,489.5z"/>
<path class="st2" d="M661.8,508.2L389.3,288.6c-0.4-0.3-0.5-1-0.2-1.4s1-0.5,1.4-0.2l0,0L663,506.6c0.4,0.3,0.5,1,0.2,1.4
	C662.9,508.5,662.3,508.5,661.8,508.2L661.8,508.2z"/>
<path class="st2" d="M743,539.3H1c-0.6,0-1-0.4-1-1s0.4-1,1-1h742c0.6,0,1,0.4,1,1S743.6,539.3,743,539.3z"/>
<polygon class="st3" points="338.1,390.6 326.6,390.6 321.2,346.5 338.1,346.5 "/>
<path class="st4" d="M318.5,387.4h22l0,0v13.9l0,0h-35.9l0,0l0,0C304.6,393.6,310.8,387.4,318.5,387.4L318.5,387.4z"/>
<polygon class="st3" points="221.3,390.6 209.9,390.6 204.4,346.5 221.3,346.5 "/>
<path class="st4" d="M201.7,387.4h22l0,0v13.9l0,0h-35.9l0,0l0,0C187.8,393.6,194,387.4,201.7,387.4L201.7,387.4z"/>
<path class="st4" d="M259.5,63.5v-5c0-17.8,14.4-32.2,32.2-32.2l0,0c17.8,0,32.2,14.4,32.2,32.2l0,0v5c0,12.8-10.4,23.2-23.2,23.2
	l0,0h-18C269.9,86.8,259.5,76.4,259.5,63.5L259.5,63.5z"/>
<circle class="st3" cx="291.7" cy="63.9" r="24.6"/>
<path class="st3" d="M406.5,196.1"/>
<path class="st3" d="M158.1,148.4c3.8-3.6,9.7-3.4,13.3,0.4c0.4,0.4,0.7,0.8,1,1.3l21.1-4l5.5,12.2l-29.8,5.2
	c-4.5,2.6-10.3,1-12.8-3.6C154.2,156.1,154.9,151.3,158.1,148.4z"/>
<path class="st2" d="M272.6,104l0.3,0.4l-34.5,22.7l-58.3,18.6c-1.6,0.5-2.6,2.1-2.4,3.7l1.3,10.9c0.2,1.9,2,3.3,3.9,3.1
	c0.1,0,0.2,0,0.3-0.1l54.8-11.8c2.7-0.6,5.2-1.7,7.4-3.2l38.8-27.6c2.9-2,4.4-5.4,4.2-8.9c-0.5-5.5-5.3-9.6-10.8-9.1
	c-1.7,0.1-3.3,0.7-4.7,1.6L272.6,104z"/>
<path class="st4" d="M326.9,378.1c-1.8,0-3.4-1.1-4.1-2.7l-52.4-129.5c-0.3-0.8-1.2-1.1-2-0.8c-0.4,0.2-0.7,0.5-0.8,0.9l-42.8,126.1
	c-0.7,2.4-3.2,3.7-5.6,3c-0.1,0-0.2-0.1-0.3-0.1l-14.3-5.4c-1.6-0.6-2.7-2-2.9-3.7c-6.5-56.2,49.8-198,50.4-199.5l0.2-0.4l51.3,11.3
	l0.1,0.1c20.5,22.3,37.3,163.1,40.4,191.1c0.2,2.1-1,4.1-3,4.7l-12.7,4.5C327.9,378,327.4,378.1,326.9,378.1z"/>
<path class="st2" d="M282.7,182c-12.4,0-26.3-2.5-30.5-12.7l-0.1-0.2l0.1-0.2c3.4-5.5,7.8-14.9,5.4-16.7c-4.7-3.5-7-9.2-6.8-17
	c0.4-17,12-32,28.8-37.5l0,0c4.7-1.5,9.4-2.7,14.3-3.7c7.1-1.4,14.5,0.4,20.1,5c5.7,4.6,9,11.5,9.1,18.9
	c0.2,18.1-2.6,43.4-16.9,60.7c-0.7,0.8-1.6,1.3-2.6,1.5C296.6,181.3,289.7,182,282.7,182z"/>
<path class="st3" d="M278.1,181.3c1.4-5,6.6-8,11.7-6.7c0.5,0.1,1,0.3,1.4,0.5l16-14.5l11.1,7.5l-22.9,20.2
	c-2.1,3.8-6.6,5.7-10.8,4.6C279.6,191.6,276.7,186.4,278.1,181.3C278,181.4,278,181.4,278.1,181.3z"/>
<path class="st2" d="M304.6,181.5c-1,0-2-0.4-2.8-1l-6.3-5.2c-1.9-1.6-2.2-4.4-0.6-6.3c0.2-0.3,0.5-0.5,0.7-0.7L322,148
	c0.7-0.5,0.8-1.4,0.3-2.1L306,124.3c-3.9-5.2-3.5-12.4,0.9-17.1l0,0c4.7-5.1,12.5-5.7,17.9-1.4l0.1,0.1l17,24.4
	c6.6,5.2,7.8,14.7,2.6,21.3c-0.8,1.1-1.8,2-2.9,2.9l-34.2,26.1C306.5,181.2,305.6,181.5,304.6,181.5z"/>
<path class="st4" d="M270,57V44.8l21.8-9.5l20.7,9.5V57c0,1.1-0.9,2-2,2H272C270.9,59,270,58.1,270,57z"/>
<path class="st4" d="M290.7,27.9c-3.2-10.2,3.5-22,13.5-26s21.8-1.2,30.2,5.5s13.6,16.7,16.3,27.1s3.3,21.2,3.8,31.9
	c12.2,2.2,20.5,16.7,16.3,28.4s-19.9,17.5-30.7,11.4s-13.9-22.5-6.1-32.1c9.2-11.3,7.4-27.9-3.9-37.1c-7.5-6.1-17.8-7.6-26.8-3.8
	C297.2,35.5,289.7,29,290.7,27.9z"/>
<path class="st1" d="M153.6,101.1c-14.6-0.1-29-3.3-42.3-9.3c-1.6-0.7-2.7-2.3-2.7-4.1V51.3c0-2.5,2-4.5,4.5-4.5h81
	c2.5,0,4.5,2,4.5,4.5v36.4c0,1.8-1,3.4-2.7,4.1l0,0C182.7,97.8,168.2,101,153.6,101.1z"/>
<path class="st1" d="M153.6,71.6c-0.6,0-1.2-0.1-1.7-0.4L87.6,44.1c-2.3-1-3.4-3.6-2.4-5.9c0.5-1.1,1.4-2,2.5-2.5L152,11.4
	c1-0.4,2.2-0.4,3.2,0l63.4,24.4c2.3,0.9,3.5,3.5,2.6,5.8c-0.4,1.1-1.3,2-2.4,2.5l-63.4,27.1C154.8,71.5,154.2,71.6,153.6,71.6z"/>
<circle class="st5" cx="116.1" cy="88.3" r="6"/>
<path class="st6" d="M219,40.3l-63.4,27.1c-1,0.4-2.1,0.4-3.1,0L88.2,40.3c-0.8-0.3-1.5-0.9-1.9-1.7c-1.1,1.9-0.4,4.4,1.5,5.5
	c0.1,0.1,0.3,0.2,0.4,0.2l64.2,27.1c1,0.4,2.1,0.4,3.1,0L219,44.3c2-0.9,3-3.2,2.1-5.2c-0.1-0.1-0.1-0.3-0.2-0.4
	C220.4,39.4,219.8,39.9,219,40.3z"/>
<path class="st5" d="M116.6,88.3c0.6,0,1-0.4,1-1V53.8l33-12c0.6,0,1-0.4,1-1s-0.4-1-1-1l-33,12c-0.5,0-1.1,0.2-1.4,0.6
	c-0.4,0.4-0.6,0.9-0.6,1.4v33.5C115.6,87.8,116.1,88.3,116.6,88.3z"/>
<g id="Capa_2_1_">
	<g transform="translate(0.000000,258.000000) scale(0.100000,-0.100000)">
		<path class="st7" d="M6169.2,2480.4c-109.1-37.5-183.3-104.1-233.3-209.9c-51.7-110.8-40.8-257.4,26.7-360.7
			c135.8-209.1,412.4-243.3,590.7-72.5c81.6,77.5,118.3,164.1,118.3,277.4C6670.7,2377.9,6415,2563.7,6169.2,2480.4z M6397.5,2440.4
			c121.6-40.8,202.4-133.3,228.3-261.6c10.8-50,11.7-73.3,4.2-114.1c-10-58.3-47.5-140-81.6-180l-24.2-28.3l-42.5,25
			c-23.3,14.2-50.8,26.7-60.8,28.3c-12.5,1.7-21.7,12.5-29.2,34.2c-10,28.3-9.2,36.7,5.8,70.8c10,21.7,20,40.8,24.2,43.3
			c25.8,16.7,27.5,154.1,3.3,236.6c-20.8,70.8-125.8,116.6-195.8,85.8l-29.2-12.5l41.7-0.8c62.5-1.7,100.8-15,124.1-44.2
			c15-20,18.3-30,12.5-40.8c-11.7-22.5-9.2-41.7,7.5-55c13.3-11.7,13.3-11.7-2.5-5.8c-35,12.5-60.8,13.3-67.5,1.7
			c-4.2-5.8-9.2-27.5-11.7-48.3c-3.3-30.8-7.5-38.3-22.5-40c-10.8-1.7-19.2-6.7-19.2-11.7s2.5-6.7,5-4.2c3.3,2.5,13.3,0,23.3-6.7
			c21.7-15.8,58.3-16.7,52.5-1.7c-15.8,43.3-15.8,45.8,12.5,50c15,1.7,28.3,2.5,30,1.7c1.7-1.7-6.7-20-18.3-40
			c-17.5-32.5-19.2-39.2-8.3-48.3c6.7-5,11.7-15,11.7-20.8c0-7.5-9.2-5-30,9.2c-17.5,11.7-42.5,20.8-58.3,20.8
			c-39.2,0-35.8-16.7,3.3-17.5l30.8-1.7l-30.8-8.3c-34.2-9.2-42.5-22.5-15-22.5c10.8,0,20-8.3,25-21.7c6.7-15.8,12.5-20,24.2-15.8
			c30.8,9.2,32.5-47.5,2.5-81.6c-21.7-24.2-3.3-26.7,22.5-2.5l23.3,22.5l5.8-20.8c3.3-13.3,0.8-29.2-6.7-40.8
			c-8.3-13.3-10-29.2-5.8-57.5l6.7-39.2l-41.7-5c-44.2-6.7-53.3-2.5-57.5,29.2c-1.7,14.2-8.3,21.7-20.8,23.3
			c-10,1.7-22.5,9.2-29.2,15.8c-9.2,12.5-9.2,13.3,4.2,8.3c7.5-2.5,14.2-1.7,14.2,1.7c0,7.5-20,17.5-33.3,17.5
			c-4.2,0-9.2-6.7-10.8-14.2c-3.3-13.3-5-12.5-10,2.5c-3.3,10-15,22.5-25.8,27.5c-22.5,10-27.5,28.3-5,20c11.7-5,12.5-3.3,3.3,7.5
			c-8.3,10.8-8.3,14.2,3.3,18.3c10.8,4.2,11.7,8.3,5,15c-7.5,7.5-13.3,6.7-24.2-3.3c-11.7-10.8-105.8-56.7-115-56.7
			c-1.7,0-5,5.8-7.5,13.3c-4.2,10-1.7,12.5,8.3,8.3c8.3-3.3,11.7-0.8,9.2,5c-1.7,5.8-10,10.8-19.2,10.8c-22.5,0-60,78.3-68.3,141.6
			c-22.5,175.8,68.3,323.2,235.8,380.7C6241.7,2462.9,6333.3,2462.1,6397.5,2440.4z M6412.5,2257.1c0-8.3-3.3-15.8-8.3-15.8
			c-4.2,0-8.3,10-8.3,21.7s3.3,19.2,8.3,15.8C6409.1,2276.3,6412.5,2266.3,6412.5,2257.1z M6421.6,2139.7
			c0.8-25.8-4.2-47.5-13.3-62.5l-15-22.5l-8.3,18.3c-6.7,13.3-4.2,26.7,6.7,51.7c18.3,40.8,7.5,58.3-35,58.3
			c-19.2,0-27.5,3.3-25,10.8c1.7,5.8,17.5,10,35,10c20.8,0,33.3,5,35.8,12.5C6409.1,2234.6,6420.8,2186.3,6421.6,2139.7z
			 M6341.7,2036.4c10.8-7.5,24.2-10.8,29.2-7.5c10.8,6.7,10.8-4.2,0-20.8c-7.5-10.8-10-10.8-19.2,0c-5,7.5-16.7,11.7-24.2,10
			c-10.8-1.7-15,2.5-15,14.2C6312.5,2053,6315.8,2053.9,6341.7,2036.4z M6146.7,1865.6c31.7-30.8,33.3-34.2,20.8-48.3
			c-7.5-8.3-13.3-20.8-13.3-28.3c0-13.3-2.5-13.3-30.8,1.7c-17.5,8.3-48.3,28.3-68.3,42.5l-36.7,26.7l45,20
			c25,10.8,45.8,19.2,46.7,20C6110.9,1899.7,6127.5,1884.7,6146.7,1865.6z M6464.1,1865.6c44.2-20.8,55-29.2,47.5-37.5
			c-12.5-15.8-75.8-50.8-100.8-57.5c-20.8-5-21.7-3.3-27.5,37.5c-5.8,39.2,5,83.3,19.2,83.3
			C6405,1891.4,6432.5,1879.7,6464.1,1865.6z M6220,1792.3c10.8-10.8,17.5-13.3,20-6.7c2.5,7.5,6.7,7.5,15,0
			c18.3-17.5,2.5-21.7-41.7-10c-41.7,10-48.3,15.8-36.7,26.7C6186.7,1812.3,6204.2,1808.1,6220,1792.3z"/>
		<path class="st7" d="M6225,2225.5c2.5-4.2-3.3-10-12.5-13.3c-27.5-9.2-19.2-20.8,15.8-20.8c32.5,0,56.7,16.7,46.7,33.3
			c-2.5,4.2-16.7,8.3-30,8.3C6230.9,2233,6221.7,2229.7,6225,2225.5z"/>
		<path class="st7" d="M6162.5,2072.2c0-11.7,23.3-52.5,36.7-63.3c10.8-9.2,13.3-9.2,13.3,1.7c0,21.7-9.2,39.2-21.7,39.2
			c-5.8,0-15,6.7-19.2,15C6166.7,2072.2,6162.5,2075.5,6162.5,2072.2z"/>
		<path class="st7" d="M6220.9,2062.2c-11.7-13.3-8.3-15,11.7-7.5c7.5,2.5,13.3,8.3,13.3,12.5
			C6245.9,2078.9,6232.5,2076.4,6220.9,2062.2z"/>
		<path class="st7" d="M6104.2,1944.7c0-8.3-5.8-10.8-20-6.7c-21.7,5-38.3-10.8-18.3-18.3c12.5-5,71.6,19.2,71.6,29.2
			c0,3.3-7.5,5.8-16.7,6.7C6110.9,1956.4,6104.2,1952.2,6104.2,1944.7z"/>
		<path class="st7" d="M6174.2,1911.4c2.5-7.5,5-16.7,5-20.8s4.2-7.5,9.2-7.5c4.2,0,5.8,4.2,3.3,9.2c-3.3,5,7.5,0,24.2-10.8
			s31.7-25.8,35-33.3c5.8-19.2,20-19.2,20,0c0,9.2-13.3,22.5-32.5,33.3c-17.5,10-36.7,24.2-42.5,30.8
			C6182.5,1928.9,6167.5,1928.1,6174.2,1911.4z"/>
		<path class="st7" d="M5749.3,1706.5c2.5-10.8,5-145.8,5-299.9V1125h59.2h60l-3.3,299.9l-3.3,299.9h-61.6
			C5746,1724.8,5744.3,1724,5749.3,1706.5z M5841.8,1419.9v-274.1h-33.3h-33.3l-1.7,270.8c-2.5,297.4-2.5,296.6,45.8,284.1l22.5-5.8
			V1419.9z"/>
		<path class="st7" d="M5627.7,1676.5l-56.7-2.5v-186.6c0-211.6-6.7-244.1-53.3-268.3c-33.3-17.5-90-17.5-116.6,0
			c-48.3,32.5-50.8,41.7-53.3,257.4l-2.5,198.3h-60.8h-60.8l3.3-201.6c4.2-229.1,9.2-254.9,60-300.8c50-45,95-58.3,186.6-54.2
			c65.8,2.5,83.3,6.7,116.6,25.8c20.8,12.5,48.3,35.8,60.8,51.7c39.2,51.7,45,90,45,292.4c0,102.5-2.5,186.6-5.8,188.3
			C5686,1678.1,5658.5,1678.1,5627.7,1676.5z M5324.4,1642.3c1.7-7.5,4.2-90,4.2-184.1c0.8-151.6,3.3-174.1,17.5-204.1
			c42.5-88.3,165.8-94.1,221.6-10c20.8,32.5,20.8,33.3,22.5,220.8l1.7,189.1h37.5h37.5l1.7-141.6c1.7-77.5,2.5-163.3,3.3-190.8
			c0.8-85-45-147.5-133.3-177.5c-15-5.8-58.3-9.2-95.8-7.5c-75.8,2.5-124.1,21.7-155,60.8c-37.5,48.3-40.8,67.5-41.7,263.3
			c0,102.5,2.5,188.3,5,191.6c2.5,2.5,19.2,4.2,37.5,4.2C5311.1,1656.5,5321.9,1652.3,5324.4,1642.3z"/>
		<path class="st7" d="M6035.1,1538.2c-50-18.3-85.8-51.7-110.8-102.5c-19.2-39.2-23.3-58.3-23.3-106.6
			c0.8-101.6,47.5-176.6,127.5-203.3c36.7-11.7,157.5-11.7,205.8,0c39.2,10,41.7,15,31.7,64.1c-5,25-5.8,25-31.7,14.2
			c-100-41.7-197.4-9.2-217.4,73.3l-5.8,22.5H6150h140l-4.2,60.8c-5,68.3-25.8,117.5-65,150
			C6175.9,1549,6097.6,1559.8,6035.1,1538.2z M6146.7,1522.3c64.1-7.5,109.1-64.1,120-150l5.8-47.5l-65-0.8
			c-36.7-0.8-93.3-0.8-126.6-0.8c-80.8,0-97.5-15-75.8-70.8c27.5-73.3,91.6-95,219.9-75.8c11.7,1.7,16.7-2.5,16.7-14.2
			c0-20-35.8-28.3-125.8-28.3c-132.5-1.7-201.6,74.1-193.3,210.8c3.3,45,9.2,67.5,25.8,94.1c29.2,45.8,75,80,110.8,81.6
			c15.8,0.8,30.8,4.2,33.3,6.7s9.2,3.3,14.2,1.7C6112.6,1527.3,6130,1524,6146.7,1522.3z"/>
		<path class="st7" d="M6063.4,1485.7c-36.7-19.2-58.3-48.3-65-88.3c-7.5-50,3.3-55.8,100.8-55.8c90.8,0,105,5.8,105,39.2
			c0,26.7-22.5,77.5-40.8,95C6139.2,1499,6095.9,1502.3,6063.4,1485.7z M6157.5,1449c11.7-14.2,21.7-30,21.7-35
			c0-5.8,2.5-18.3,5-28.3c5-17.5,2.5-18.3-83.3-20.8c-55-1.7-88.3,0.8-88.3,5.8s4.2,22.5,8.3,39.2
			C6039.2,1475.7,6116.7,1498.2,6157.5,1449z"/>
		<path class="st7" d="M6416.6,1544c-82.5-19.2-79.1-15.8-79.1-61.7v-41.7l26.7,14.2c30,15,110.8,25,143.3,16.7
			c31.7-7.5,55-35,55-63.3c0-25,0-25-48.3-25c-59.2,0-137.5-19.2-169.1-42.5c-33.3-24.2-50.8-61.7-50.8-110
			c0-70.8,50-114.1,132.5-114.1c55.8,0,82.5,10.8,116.6,46.7l27.5,29.2v-33.3V1125h55h55l-3.3,156.6
			c-3.3,164.1-5.8,176.6-46.7,220.8C6595.8,1539.8,6489.1,1560.7,6416.6,1544z M6562.4,1519.8c27.5-5.8,61.6-35,76.6-65.8
			c16.7-33.3,20.8-141.6,5-132.5c-8.3,4.2-9.2,3.3,0-5.8c10.8-11.7,15-165,4.2-166.6c-42.5-4.2-55-2.5-58.3,9.2
			c-2.5,6.7-8.3,20.8-13.3,30.8c-6.7,15.8-10.8,17.5-21.7,8.3c-6.7-5-4.2,1.7,5.8,15c23.3,31.7,29.2,108.3,10,120.8
			c-32.5,20.8-129.1,0.8-160.8-31.7c-43.3-45.8-30-110.8,25.8-126.6c16.7-4.2,42.5-9.2,55.8-10.8c21.7-2.5,22.5-3.3,8.3-9.2
			c-9.2-3.3-23.3-10-30.8-14.2c-29.2-15-115-2.5-115,17.5c0,3.3-7.5,8.3-15.8,10.8c-18.3,4.2-30,57.5-21.7,95.8
			c11.7,55.8,83.3,92.5,185.8,97.5c34.2,0.8,65.8,6.7,70,10.8c13.3,13.3,10,55.8-6.7,80.8c-28.3,43.3-111.6,55.8-183.3,29.2
			c-23.3-9.2-31.7,0.8-17.5,19.2c5.8,8.3,28.3,15.8,55.8,19.2c25,2.5,47.5,6.7,49.2,8.3C6474.1,1533.2,6524.1,1528.2,6562.4,1519.8z
			 M6562.4,1291.6c0-46.7-20-82.5-55.8-96.6c-55-23.3-105.8,5-100.8,55.8c4.2,43.3,50.8,68.3,138.3,73.3
			C6559.9,1324.9,6562.4,1320.7,6562.4,1291.6z"/>
		<path class="st7" d="M6919.8,1541.5c-33.3-10-65-33.3-78.3-57.5c-11.7-21.7-11.7-20.8-12.5,18.3v39.2h-55h-55l5-25.8
			c2.5-14.2,5-108.3,5-208.3v-182.5h58.3h58.3v137.5c0,150.8,5.8,175.8,45.8,194.1c30.8,14.2,41.7,12.5,65.8-8.3
			c20.8-19.2,20.8-20.8,23.3-170.8l2.5-152.5h55.8h56.7v131.6c0,107.5,2.5,135.8,15,160c19.2,38.3,51.7,56.7,82.5,45.8
			c39.2-14.2,44.2-36.7,44.2-193.3v-144.1h59.2h59.2l-3.3,165c-2.5,145.8-4.2,167.5-19.2,192.4c-33.3,56.7-95,80-157.5,59.2
			c-35.8-11.7-80-46.7-80-63.3c0-6.7-3.3-11.7-8.3-11.7c-4.2,0-8.3,5-8.3,10.8c0,17.5-44.2,55.8-75.8,64.1
			C6970.7,1550.7,6950.7,1551.5,6919.8,1541.5z M7285.6,1509.8c35.8-23.3,43.3-59.2,43.3-215.8c0-158.3-1.7-164.1-49.2-147.5
			c-24.2,9.2-23.3,6.7-25,200.8c-0.8,83.3-1.7,85-26.7,110c-45,45.8-116.6,27.5-140.8-35.8c-4.2-10.8-8.3-75-9.2-142.5
			c-1.7-110.8-3.3-122.5-18.3-130c-8.3-5-25-6.7-35.8-4.2c-20,5-20,5-20,128.3c0,135.8-7.5,175-35,192.4
			c-18.3,11.7-86.6,28.3-77.5,19.2c1.7-2.5-4.2-8.3-14.2-13.3s-25.8-22.5-35-38.3c-15-25-17.5-45-19.2-150
			c-0.8-66.6-1.7-124.1-2.5-127.5c0-4.2-3.3-4.2-8.3-1.7c-4.2,2.5-8.3,1.7-8.3-3.3s-12.5-8.3-28.3-7.5l-28.3,0.8l-0.8,186.6
			l-1.7,186.6l31.7-2.5c27.5-2.5,31.7-5.8,34.2-25c3.3-31.7,26.7-37.5,48.3-12.5c36.7,43.3,97.5,58.3,150,38.3
			c13.3-4.2,36.7-21.7,52.5-38.3l29.2-30l26.7,30.8C7161.4,1529.8,7233.9,1543.2,7285.6,1509.8z"/>
		<path class="st7" d="M5304.4,1027.5c0-55-10.8-72.5-43.3-67.5c-17.5,2.5-19.2,7.5-21.7,55c-3.3,62.5-18.3,69.1-18.3,7.5
			c0-47.5,10-67.5,38.3-75.8c31.7-9.2,52.5,17.5,54.2,71.6c1.7,26.7,0,50.8-3.3,54.2C5306.9,1075,5304.4,1055,5304.4,1027.5z"/>
		<path class="st7" d="M5483.6,1058.3c12.5-40,45-108.3,52.5-108.3c9.2,0,55,115.8,48.3,122.5c-2.5,2.5-8.3-4.2-12.5-15
			s-14.2-36.7-21.7-56.7l-15-35.8l-20,48.3C5492.7,1065.8,5472.7,1095,5483.6,1058.3z"/>
		<path class="st7" d="M5828.5,1059.1c-25.8-21.7-14.2-41.7,30.8-55c23.3-6.7,32.5-13.3,32.5-25c0-20-40-27.5-59.2-11.7
			c-6.7,5-14.2,7.5-16.7,5s5-10.8,16.7-18.3c15.8-10.8,26.7-12.5,43.3-6.7c52.5,17.5,44.2,53.3-15,69.1c-24.2,6.7-31.7,13.3-30,23.3
			c3.3,17.5,44.2,23.3,61.6,9.2c7.5-6.7,11.7-6.7,11.7-0.8c0,10.8-26.7,26.7-44.2,26.7C5853.5,1075,5839.3,1067.5,5828.5,1059.1z"/>
		<path class="st7" d="M6637.4,1064.1c-11.7-5.8-25.8-20.8-31.7-33.3c-21.7-45,29.2-99.1,76.6-80.8c11.7,4.2,21.7,12.5,21.7,18.3
			c0,7.5-2.5,7.5-10,0c-27.5-27.5-81.6,0-81.6,41.7c0,38.3,55,65,81.6,38.3c7.5-7.5,10-7.5,10,0c0,5.8-10,14.2-21.7,18.3
			C6657.4,1076.6,6662.4,1076.6,6637.4,1064.1z"/>
		<path class="st7" d="M5339.4,1006.6l0.8-60.8l5,49.2l5,50l36.7-47.5c20-25.8,38.3-47.5,41.7-47.5c2.5,0,5,26.7,5,58.3
			c0,32.5-2.5,58.3-5.8,58.3c-4.2,0-6.7-20.8-6.7-46.7v-46.7l-38.3,46.7c-20.8,25.8-39.2,46.7-41.7,46.7
			C5339.4,1066.6,5338.6,1039.1,5339.4,1006.6z"/>
		<path class="st7" d="M5454.4,1008.3c0-33.3,3.3-58.3,8.3-58.3s8.3,25,8.3,58.3s-3.3,58.3-8.3,58.3
			C5457.7,1066.6,5454.4,1041.6,5454.4,1008.3z"/>
		<path class="st7" d="M5604.4,1008.3V950l44.2,1.7l43.3,1.7l-39.2,2.5c-35.8,3.3-40,5.8-40,24.2c0,17.5,3.3,20,32.5,20
			c18.3,0,35.8,4.2,38.3,8.3c3.3,5-10,8.3-32.5,8.3c-35,0-38.3,1.7-38.3,20c0,18.3,4.2,20.8,40,24.2l39.2,2.5l-43.3,1.7l-44.2,1.7
			V1008.3z"/>
		<path class="st7" d="M5704.3,1008.3c0-37.5,3.3-58.3,9.2-58.3c5.8,0,7.5,8.3,5.8,20.8c-3.3,17.5-0.8,20.8,15,20.8
			c11.7,0,25-8.3,33.3-20.8c7.5-11.7,17.5-20.8,22.5-20.8s0.8,8.3-9.2,19.2c-17.5,18.3-17.5,19.2-1.7,29.2
			c18.3,11.7,21.7,43.3,6.7,58.3c-5.8,5.8-25.8,10-45.8,10h-35.8V1008.3z M5782.6,1039.1c11.7-19.2-11.7-39.2-42.5-35.8
			c-18.3,2.5-21.7,6.7-22.5,29.2c-0.8,25,0.8,26.7,27.5,24.2C5761.8,1055,5777.6,1047.5,5782.6,1039.1z"/>
		<path class="st7" d="M5920.9,1008.3c0-33.3,3.3-58.3,8.3-58.3s8.3,25,8.3,58.3s-3.3,58.3-8.3,58.3
			C5924.3,1066.6,5920.9,1041.6,5920.9,1008.3z"/>
		<path class="st7" d="M5954.3,1008.3V950h37.5c42.5,0,70.8,23.3,70.8,58.3c0,35-28.3,58.3-70.8,58.3h-37.5V1008.3z M6032.6,1045
			c30.8-30,5.8-86.6-38.3-86.6c-23.3,0-23.3,0.8-23.3,50c0,50,0,50,24.2,50C6008.4,1058.3,6025.9,1052.5,6032.6,1045z"/>
		<path class="st7" d="M6090.1,1008.3c-14.2-32.5-22.5-58.3-18.3-58.3s10,5.8,12.5,12.5c3.3,8.3,16.7,12.5,40.8,12.5
			s37.5-4.2,40.8-12.5c2.5-6.7,8.3-12.5,12.5-12.5s-4.2,25.8-18.3,58.3c-15,31.7-30,58.3-35,58.3
			C6120.9,1066.6,6105.1,1040,6090.1,1008.3z M6154.2,991.7c0-2.5-13.3-4.2-29.2-4.2s-29.2,0.8-29.2,1.7s6.7,15,14.2,31.7l14.2,30
			l15-27.5C6146.7,1008.3,6153.4,994.2,6154.2,991.7z"/>
		<path class="st7" d="M6195.9,1008.3V950h36.7c30,0,40,4.2,54.2,21.7c10,12.5,17.5,28.3,17.5,36.7c0,8.3-7.5,24.2-17.5,36.7
			c-14.2,17.5-24.2,21.7-54.2,21.7h-36.7V1008.3z M6272.5,1044.1c32.5-29.2,9.2-85.8-36.7-85.8c-23.3,0-23.3,0.8-23.3,50
			c0,48.3,0.8,50,22.5,50C6246.7,1058.3,6264.2,1052.5,6272.5,1044.1z"/>
		<path class="st7" d="M6362.5,1008.3V950h50c39.2,0,50,2.5,50,12.5c0,19.2,71.6,17.5,82.5-1.7c4.2-8.3,10-13.3,11.7-10.8
			c5.8,5.8-45,116.6-53.3,116.6c-4.2,0-18.3-24.2-31.7-54.2c-25-53.3-25-54.2-58.3-54.2h-34.2v54.2c0,30.8-3.3,54.2-8.3,54.2
			S6362.5,1041.6,6362.5,1008.3z M6516.6,1025c16.7-32.5,16.7-33.3-13.3-33.3c-21.7,0-25,2.5-20,15c3.3,7.5,8.3,20.8,10,29.2
			C6499.1,1055,6501.6,1054.1,6516.6,1025z"/>
		<path class="st7" d="M6570.8,1008.3c0-33.3,3.3-58.3,8.3-58.3s8.3,25,8.3,58.3s-3.3,58.3-8.3,58.3S6570.8,1041.6,6570.8,1008.3z"
			/>
		<path class="st7" d="M6734.1,1012.5c-13.3-30-21.7-57.5-19.2-60c3.3-2.5,7.5,1.7,10.8,9.2c6.7,18.3,74.1,19.2,81.6,0.8
			c2.5-6.7,8.3-12.5,12.5-12.5s-4.2,25.8-18.3,58.3c-15,31.7-30.8,58.3-35,58.3C6761.5,1066.6,6747.4,1042.5,6734.1,1012.5z
			 M6795.7,991.7c0-2.5-13.3-4.2-29.2-4.2s-29.2,0.8-29.2,1.7s6.7,15,14.2,31.7l14.2,30l15-27.5
			C6788.2,1008.3,6794.9,994.2,6795.7,991.7z"/>
		<path class="st7" d="M6855.7,970.8l9.2-20.8h244.9h244.1v20.8v20.8h-254.1h-254.1L6855.7,970.8z"/>
		<path class="st7" d="M7317.2,895.8c-2.5-7.5,0-12.5,6.7-12.5c5.8,0,15.8,5.8,21.7,12.5c8.3,10,7.5,12.5-6.7,12.5
			C7329.7,908.3,7320.6,902.5,7317.2,895.8z"/>
		<path class="st7" d="M5222.8,815.9l2.5-59.2l44.2-1.7c30-0.8,43.3,2.5,43.3,10c0,5.8-12.5,10-33.3,10c-26.7,0-33.3,3.3-33.3,15
			s5.8,14.2,33.3,11.7c26.7-2.5,33.3-0.8,33.3,10c0,10-8.3,13.3-33.3,13.3c-24.2,0-33.3,3.3-33.3,12.5s9.2,12.5,33.3,12.5
			c24.2,0,33.3,3.3,33.3,12.5c0,10-10.8,12.5-45.8,12.5h-46.7L5222.8,815.9z"/>
		<path class="st7" d="M5329.4,815v-60.8h41.7c28.3,0,41.7,3.3,41.7,10S5401.1,775,5382,775h-31.7l2.5,50c2.5,41.7,0.8,50-10,50
			S5329.4,864.2,5329.4,815z"/>
		<path class="st7" d="M5433.6,858.4c-22.5-25-20.8-73.3,3.3-92.5c25-20.8,51.7-20,79.1,1.7c27.5,21.7,30,65.8,5,90.8
			C5498.6,880.8,5453.6,880,5433.6,858.4z M5499.4,847.5c10-7.5,14.2-19.2,11.7-39.2c-2.5-25-5.8-29.2-27.5-31.7
			c-41.7-5-59.2,35-29.2,65C5473.6,860.9,5479.4,861.7,5499.4,847.5z"/>
		<path class="st7" d="M5542.7,865c3.3-5.8,13.3-21.7,22.5-35c9.2-12.5,16.7-35,17.5-49.2c0.8-35,21.7-40,21.7-5
			c0,15,8.3,38.3,19.2,52.5c31.7,41.7,33.3,46.7,16.7,46.7c-8.3,0-22.5-11.7-31.7-26.7l-15-26.7l-13.3,26.7
			c-7.5,15.8-18.3,26.7-27.5,26.7C5541.9,875,5538.5,871.7,5542.7,865z"/>
		<path class="st7" d="M5706.8,812.5c-20-47.5-23.3-62.5-14.2-62.5c6.7,0,14.2,5.8,16.7,12.5c3.3,8.3,16.7,12.5,37.5,12.5
			c21.7,0,35-4.2,37.5-12.5c5-11.7,28.3-18.3,28.3-8.3c0,2.5-11.7,30-25.8,62.5c-17.5,37.5-30.8,58.3-40,58.3
			C5738.5,875,5724.3,853.4,5706.8,812.5z M5752.7,801.7c-22.5-4.2-25.8,0.8-14.2,26.7l10.8,22.5l9.2-23.3
			C5766.8,806.7,5766,804.2,5752.7,801.7z"/>
		<path class="st7" d="M5822.6,815.9l2.5-60h41.7c23.3,0,42.5,4.2,44.2,10s-9.2,9.2-30.8,9.2H5846v50c0,39.2-2.5,50-12.5,50
			C5822.6,875,5821,865,5822.6,815.9z"/>
		<path class="st7" d="M5920.9,812.5c0-50,2.5-62.5,12.5-62.5c8.3,0,12.5,8.3,12.5,25c0,23.3,2.5,25,29.2,25
			c18.3,0,29.2,4.2,29.2,10.8c0,7.5-9.2,10-29.2,7.5c-25-3.3-29.2-0.8-29.2,14.2s5,17.5,33.3,17.5c24.2,0,33.3,3.3,33.3,12.5
			c0,10-10.8,12.5-45.8,12.5h-45.8V812.5z"/>
		<path class="st7" d="M6037.6,820.9c-14.2-30.8-25-59.2-25-63.3c0-12.5,16.7-8.3,21.7,5c6.7,17.5,60,15.8,80-1.7
			c26.7-23.3,26.7-5,0.8,53.3C6080.9,889.2,6069.2,890.8,6037.6,820.9z M6089.2,815c5.8-12.5,3.3-15-13.3-15c-19.2,0-20,1.7-10.8,25
			c5.8,14.2,11.7,20.8,13.3,15C6080.1,834.2,6085.1,822.5,6089.2,815z"/>
		<path class="st7" d="M6147.5,815c1.7-38.3,5.8-60.8,13.3-63.3c5.8-1.7,10,5,10,18.3c0,27.5,16.7,27.5,41.7,0.8
			c19.2-20,41.7-27.5,41.7-14.2c0,4.2-7.5,14.2-16.7,22.5c-15,13.3-15.8,16.7-4.2,22.5c15,9.2,16.7,49.2,2.5,63.3
			c-5.8,5.8-28.3,10-50,10H6145L6147.5,815z M6225,833.4c0-8.3-10-13.3-26.7-15c-23.3-2.5-27.5,0-27.5,15s4.2,17.5,27.5,15
			C6215,846.7,6225,841.7,6225,833.4z"/>
		<path class="st7" d="M6276.7,860c-7.5-8.3-16.7-26.7-19.2-40.8c-4.2-21.7-0.8-30.8,15.8-47.5c25.8-25.8,54.2-27.5,84.1-4.2
			c27.5,21.7,30,65.8,5,90.8C6341.7,879.2,6295,880,6276.7,860z M6338.3,850c18.3-10,21.7-49.2,5.8-65c-5.8-5.8-17.5-10-27.5-10
			c-38.3,0-51.7,47.5-19.2,70C6320,860.9,6317.5,860.9,6338.3,850z"/>
		<path class="st7" d="M6422.5,815l2.5-60.8l37.5,3.3c46.7,3.3,66.6,20,66.6,56.7c0,40-24.2,60.8-70.8,60.8H6420L6422.5,815z
			 M6503.3,831.7c10-25.8-7.5-51.7-35.8-55c-20.8-2.5-21.7-0.8-21.7,35c0,37.5,0.8,38.3,25,38.3C6490,850,6498.3,845,6503.3,831.7z"
			/>
		<path class="st7" d="M6545.8,815v-60.8l43.3,0.8c55,1.7,65.8,20,11.7,20c-28.3,0-38.3,3.3-38.3,12.5s9.2,12.5,33.3,12.5
			s33.3,3.3,33.3,12.5s-9.2,12.5-33.3,12.5s-33.3,3.3-33.3,12.5s10,12.5,37.5,12.5s37.5,3.3,37.5,12.5c0,10-10.8,12.5-45.8,12.5
			h-45.8v-60H6545.8z"/>
		<path class="st7" d="M6679.1,812.5c0-50,2.5-62.5,12.5-62.5s12.5,10.8,12.5,48.3v47.5l16.7-26.7c9.2-15,20-27.5,24.2-27.5
			s15,12.5,25,27.5l17.5,26.7v-48.3c0-35,3.3-47.5,10-45.8c6.7,2.5,11.7,25.8,13.3,63.3c3.3,55.8,1.7,60-14.2,60
			c-10,0-22.5-10-31.7-25c-7.5-13.3-16.7-25-19.2-25s-11.7,11.7-20.8,25c-9.2,13.3-23.3,25-30.8,25
			C6680.7,875,6679.1,866.7,6679.1,812.5z"/>
		<path class="st7" d="M6844,820.9c-13.3-29.2-23.3-57.5-23.3-62.5c0-12.5,16.7-10,21.7,4.2c3.3,8.3,16.7,12.5,37.5,12.5
			c21.7,0,35-4.2,37.5-12.5c3.3-6.7,10.8-12.5,17.5-12.5s10.8,5,8.3,10.8c-30.8,77.5-51.7,114.1-63.3,114.1
			C6871.5,875,6858.2,855.9,6844,820.9z M6885.7,801.7c-22.5-4.2-25.8,0.8-14.2,26.7l10.8,22.5l9.2-23.3
			C6899.8,806.7,6899,804.2,6885.7,801.7z"/>
		<path class="st7" d="M6954,812.5c0-50,2.5-62.5,12.5-62.5c9.2,0,12.5,10,12.5,42.5V835l33.3-42.5c18.3-23.3,35.8-42.5,37.5-42.5
			c2.5,0,4.2,28.3,4.2,62.5c0,52.5-2.5,62.5-13.3,62.5c-11.7,0-13.3-6.7-10-37.5c2.5-20.8,4.2-37.5,3.3-37.5
			c-0.8,0-14.2,16.7-30,37.5C6963.2,891.7,6954,887.5,6954,812.5z"/>
		<path class="st7" d="M7091.5,823.4c-12.5-29.2-24.2-57.5-26.7-62.5c-2.5-5.8,1.7-10.8,9.2-10.8s15.8,5.8,18.3,12.5
			c3.3,8.3,16.7,12.5,36.7,12.5s33.3-4.2,36.7-12.5c5-14.2,21.7-16.7,21.7-4.2c0,5-10,33.3-22.5,62.5
			C7134.8,890.8,7121.4,890.8,7091.5,823.4z M7137.3,834.2c0-4.2,2.5-13.3,5-20.8c4.2-10,0-13.3-16.7-13.3c-20,0-20.8,1.7-11.7,20.8
			C7123.1,840.9,7137.3,849.2,7137.3,834.2z"/>
		<path class="st7" d="M7197.3,815l2.5-60l41.7,2.5c50,2.5,70.8,18.3,56.7,41.7c-5,8.3-7.5,23.3-5,33.3
			c7.5,28.3-11.7,42.5-57.5,42.5h-40.8L7197.3,815z M7274.7,837.5c0-4.2-12.5-9.2-26.7-10.8c-20.8-2.5-27.5,0.8-27.5,10.8
			s6.7,13.3,27.5,10.8C7262.2,846.7,7274.7,842.5,7274.7,837.5z M7269.7,800.9c17.5-10.8,3.3-25.8-25-25.8
			c-18.3,0-24.2,4.2-24.2,16.7C7220.6,809.2,7248.1,815,7269.7,800.9z"/>
		<path class="st7" d="M7312.2,812.5c0-50,2.5-62.5,12.5-62.5s12.5,12.5,12.5,62.5s-2.5,62.5-12.5,62.5S7312.2,862.5,7312.2,812.5z"
			/>
	</g>
	<g>
		<path class="st7" d="M500.9,210.6c-0.6,3.3-3.3,5.7-7,5.7h-4.6l2-11.5h4.6C499.6,204.9,501.5,207.2,500.9,210.6z M494.2,213.5
			c1.8,0,3.2-1.1,3.5-2.9c0.3-1.9-0.7-3-2.5-3h-1.1l-1.1,5.9H494.2z"/>
		<path class="st7" d="M506.9,212.5h-1.6l-0.7,3.8h-3.2l2-11.5h4.7c2.8,0,4,1.6,3.6,3.8C511.4,210.7,509.8,212.5,506.9,212.5z
			 M506.9,210c1,0,1.4-0.5,1.6-1.2s-0.2-1.2-1.2-1.2h-1.2l-0.4,2.5h1.2V210z"/>
		<path class="st7" d="M513.1,204.9h9.3l-0.4,2.6h-3.1l-1.6,9h-3.2l1.6-9h-3L513.1,204.9z"/>
		<path class="st7" d="M527.2,216.5c-2.9,0-4.9-2-4.9-4.8c0-4.2,2.7-7,6.8-7c3,0,4.9,1.9,4.9,4.7C534,213.5,531.2,216.5,527.2,216.5
			z M527.6,213.5c2,0,3.2-1.7,3.2-3.7c0-1.3-0.7-2.2-2.2-2.2c-2,0-3.2,1.7-3.2,3.7C525.4,212.7,526.2,213.5,527.6,213.5z"/>
		<path class="st7" d="M535.9,216.5c-1.2,0-1.7-0.7-1.6-1.7c0.2-0.9,1-1.7,2.2-1.7s1.7,0.7,1.6,1.7
			C537.9,215.8,537.1,216.5,535.9,216.5z"/>
		<path class="st7" d="M548.3,216.4h-5.7l2-11.5h5.5c2.3,0,3.6,1.1,3.2,3c-0.2,1.4-1.2,2.3-2.4,2.6c1.3,0.3,2,1.5,1.7,2.7
			C552.4,215.2,550.8,216.4,548.3,216.4z M548.5,211.7h-1.8l-0.3,2.1h1.8c0.7,0,1.2-0.3,1.4-1C549.7,212.1,549.3,211.7,548.5,211.7z
			 M549,207.5h-1.6l-0.3,2h1.6c0.7,0,1.2-0.3,1.3-1C550.2,207.8,549.8,207.5,549,207.5z"/>
		<path class="st7" d="M555.6,204.9h3.2l-2,11.5h-3.2L555.6,204.9z"/>
		<path class="st7" d="M567.6,207.4h-4.2l-0.3,1.9h3.7l-0.4,2.4h-3.7l-0.4,2.1h4.2l-0.4,2.6h-7.4l2-11.5h7.3L567.6,207.4z"/>
		<path class="st7" d="M580.2,204.9l-2,11.5H575l-3.1-6.4l-1.2,6.4h-3.2l2-11.5h3.2l3.1,6.5l1.2-6.5H580.2z"/>
		<path class="st7" d="M589,207.4h-4.2l-0.3,1.9h3.7l-0.4,2.4h-3.7l-0.4,2.2h4.2l-0.4,2.6H580l2-11.5h7.3L589,207.4z"/>
		<path class="st7" d="M593.7,216.5c-2.7,0-4.7-1.2-4.4-3.7h3.4c-0.1,0.7,0.3,1.2,1.1,1.2c0.6,0,1.1-0.2,1.1-0.8
			c0-1.7-4.7-1.3-4.7-4.7c0-2.4,1.9-3.8,4.7-3.8c2.6,0,4.4,1.3,4.2,3.6h-3.4c0.1-0.7-0.2-1.1-0.9-1.1c-0.6,0-1,0.3-1,0.8
			c0,1.6,4.7,1.5,4.7,4.8C598.3,215,596.6,216.5,593.7,216.5z"/>
		<path class="st7" d="M600.7,204.9h9.3l-0.4,2.6h-3.1l-1.6,9h-3.2l1.6-9h-3L600.7,204.9z"/>
		<path class="st7" d="M616.7,214.5h-4.1l-0.9,1.9h-3.3l6.2-11.5h3.7l2.2,11.5h-3.4L616.7,214.5z M615.8,208.4l-1.9,3.7h2.5
			L615.8,208.4z"/>
		<path class="st7" d="M628.6,204.9c2.8,0,4,1.7,3.7,3.7c-0.2,1.5-1.3,2.8-3.1,3.3l1.8,4.5h-3.6l-1.5-4.2h-0.3l-0.7,4.2h-3.2l2-11.5
			H628.6z M627.8,207.5h-1.6l-0.4,2.4h1.6c0.8,0,1.3-0.4,1.5-1.2C629.1,208,628.7,207.5,627.8,207.5z"/>
		<path class="st7" d="M644.5,207.4h-4.2l-0.3,1.9h3.7l-0.4,2.4h-3.7l-0.4,2.1h4.2l-0.4,2.6h-7.4l2-11.5h7.3L644.5,207.4z"/>
		<path class="st7" d="M649.2,216.5c-2.7,0-4.7-1.2-4.4-3.7h3.4c-0.1,0.7,0.3,1.2,1.1,1.2c0.6,0,1.1-0.2,1.1-0.8
			c0-1.7-4.7-1.3-4.7-4.7c0-2.4,1.9-3.8,4.7-3.8c2.6,0,4.4,1.3,4.2,3.6h-3.4c0.1-0.7-0.2-1.1-0.9-1.1c-0.6,0-1,0.3-1,0.8
			c0,1.6,4.7,1.5,4.7,4.8C653.8,215,652.1,216.5,649.2,216.5z"/>
		<path class="st7" d="M656.2,204.9h9.3l-0.4,2.6H662l-1.6,9h-3.2l1.6-9h-3L656.2,204.9z"/>
		<path class="st7" d="M666.6,204.9h3.2l-1.2,6.7c-0.2,1.2,0.2,1.9,1.4,1.9s1.9-0.7,2.1-1.9l1.2-6.7h3.2l-1.2,6.7
			c-0.6,3.3-3.1,4.9-5.9,4.9c-2.7,0-4.6-1.7-4-4.9L666.6,204.9z"/>
		<path class="st7" d="M687.9,210.6c-0.6,3.3-3.3,5.7-7,5.7h-4.6l2-11.5h4.6C686.6,204.9,688.5,207.2,687.9,210.6z M681.1,213.5
			c1.8,0,3.2-1.1,3.5-2.9c0.3-1.9-0.7-3-2.5-3H681l-1.1,5.9H681.1z"/>
		<path class="st7" d="M690.3,204.9h3.2l-2,11.5h-3.2L690.3,204.9z"/>
		<path class="st7" d="M701,214.5h-4.1l-0.9,1.9h-3.3l6.2-11.5h3.7l2.2,11.5h-3.4L701,214.5z M700,208.4l-1.9,3.7h2.5L700,208.4z"/>
		<path class="st7" d="M718.3,204.9l-2,11.5H713l-3-6.4l-1.2,6.4h-3.2l2-11.5h3.2l3.1,6.5l1.2-6.5H718.3z"/>
		<path class="st7" d="M719.5,204.9h9.3l-0.4,2.6h-3.2l-1.6,9h-3.2l1.6-9h-3L719.5,204.9z"/>
		<path class="st7" d="M730,204.9h3.2l-2,11.5H728L730,204.9z"/>
		<path class="st7" d="M738.2,204.9l-1.6,9.1h3.6l-0.4,2.4H733l2-11.5H738.2z"/>
	</g>
</g>
</svg>
